{
  "openapi": "3.0.0",
  "info": {
    "title": "Sample REST API",
    "description": "Sample REST API with Swagger and Open API 3",
    "contact": {
      "name": "Frédéric Dessalle",
      "email": "frederic_dessalle@hotmail.fr"
    },
    "version": "1.0.0"
  },
  "servers": [
    {
      "url": "https://virtserver.swaggerhub.com/FredericDessalle/API-MOUNTAIN/1.0.0",
      "description": "SwaggerHub API Auto Mocking"
    },
    {
      "url": "http://localhost:8080",
      "description": "Local server"
    },
    {
      "url": "https://api-dev.mydomain.com/v1/",
      "description": "Remote developement server"
    },
    {
      "url": "https://api-preprod.mydomain.com/v1/",
      "description": "Remote preproduction server"
    },
    {
      "url": "https://api-prod.mydomain.com/v1/",
      "description": "Remote production server"
    }
  ],
  "security": [
    {
      "ApiKeyAuth": []
    }
  ],
  "tags": [
    {
      "name": "Auth",
      "description": "Operations about auth"
    },
    {
      "name": "Users",
      "description": "Operations about users"
    }
  ],
  "paths": {
    "/auth": {
      "post": {
        "tags": [
          "Auth"
        ],
        "summary": "Auth user into api",
        "operationId": "auth",
        "responses": {
          "200": {
            "description": "successful operation",
            "content": {
              "application/json": {
                "schema": {
                  "$ref": "#/components/schemas/AuthResponseObject"
                }
              }
            }
          },
          "401": {
            "description": "Invalid login/password supplied"
          },
          "403": {
            "description": "Forbidden"
          }
        },
        "security": [],
        "x-swagger-router-controller": "Auth"
      }
    },
    "/user": {
      "post": {
        "tags": [
          "Users"
        ],
        "summary": "Add user",
        "operationId": "addUser",
        "requestBody": {
          "description": "user request object",
          "content": {
            "application/json": {
              "schema": {
                "$ref": "#/components/schemas/UserRequestBodyObject"
              }
            }
          },
          "required": true
        },
        "responses": {
          "200": {
            "description": "successful operation"
          },
          "400": {
            "description": "Invalid stationId supplied"
          },
          "403": {
            "description": "Forbidden"
          },
          "404": {
            "description": "Route not found"
          }
        },
        "x-swagger-router-controller": "User"
      }
    },
    "/user/{userId}": {
      "get": {
        "tags": [
          "Users"
        ],
        "summary": "Get user",
        "operationId": "getUser",
        "parameters": [
          {
            "name": "userId",
            "in": "path",
            "description": "user id",
            "required": true,
            "style": "simple",
            "explode": false,
            "schema": {
              "type": "integer"
            }
          }
        ],
        "responses": {
          "200": {
            "description": "successful operation"
          },
          "400": {
            "description": "Invalid stationId supplied"
          },
          "403": {
            "description": "Forbidden"
          },
          "404": {
            "description": "Route not found"
          }
        },
        "x-swagger-router-controller": "User"
      },
      "put": {
        "tags": [
          "Users"
        ],
        "summary": "Update user",
        "operationId": "updateUser",
        "parameters": [
          {
            "name": "userId",
            "in": "path",
            "description": "user id",
            "required": true,
            "style": "simple",
            "explode": false,
            "schema": {
              "type": "integer"
            }
          }
        ],
        "requestBody": {
          "description": "user request object",
          "content": {
            "application/json": {
              "schema": {
                "$ref": "#/components/schemas/UserRequestBodyObject"
              }
            }
          },
          "required": true
        },
        "responses": {
          "200": {
            "description": "successful operation"
          },
          "400": {
            "description": "Invalid stationId supplied"
          },
          "403": {
            "description": "Forbidden"
          },
          "404": {
            "description": "Route not found"
          }
        },
        "x-swagger-router-controller": "User"
      },
      "delete": {
        "tags": [
          "Users"
        ],
        "summary": "Delete user",
        "operationId": "deleteUser",
        "parameters": [
          {
            "name": "userId",
            "in": "path",
            "description": "user id",
            "required": true,
            "style": "simple",
            "explode": false,
            "schema": {
              "type": "integer"
            }
          }
        ],
        "responses": {
          "200": {
            "description": "successful operation"
          },
          "400": {
            "description": "Invalid stationId supplied"
          },
          "403": {
            "description": "Forbidden"
          },
          "404": {
            "description": "Route not found"
          }
        },
        "x-swagger-router-controller": "User"
      }
    }
  },
  "components": {
    "schemas": {
      "AuthResponseObject": {
        "type": "object",
        "properties": {
          "apiKey": {
            "type": "string"
          }
        }
      },
      "UserRequestBodyObject": {
        "type": "object",
        "properties": {
          "userId": {
            "type": "integer"
          },
          "sector": {
            "type": "integer"
          },
          "important": {
            "type": "integer"
          },
          "picture": {
            "type": "string"
          },
          "lat": {
            "type": "number"
          },
          "lng": {
            "type": "number"
          },
          "desc": {
            "type": "string"
          },
          "track": {
            "type": "integer"
          },
          "task": {
            "type": "integer"
          }
        }
      }
    },
    "securitySchemes": {
      "ApiKeyAuth": {
        "type": "apiKey",
        "name": "apiKey",
        "in": "header"
      }
    }
  }
}